"Title","First Name","Middle Name","Last Name","Nickname","Suffix","Company","Department","Job Title","Business Street","Business Street 2","Business Street 3","Business City","Business State","Business Postal Code","Business Country","Home Street","Home Street 2","Home Street 3","Home City","Home State","Home Postal Code","Home Country","Other Street","Other Street 2","Other Street 3","Other City","Other State","Other Postal Code","Other Country","Assistant's Phone","Business Fax","Business Phone","Business Phone 2","Callback","Car Phone","Company Main Phone","Home Fax","Home Phone","Home Phone 2","ISDN","Mobile Phone","Other Fax","Other Phone","Pager","Primary Phone","Radio Phone","TTY/TDD Phone","Telex","Account","Anniversary","Assistant's Name","Billing Information","Birthday","Business Address PO Box","Categories","Children","Directory Server","E-mail Address","E-mail Type","E-mail Display Name","E-mail 2 Address","E-mail 2 Type","E-mail 2 Display Name","E-mail 3 Address","E-mail 3 Type","E-mail 3 Display Name","Gender","Government ID Number","Hobby","Home Address PO Box","Initials","Internet Free Busy","Keywords","Language","Location","Manager's Name","Mileage","Notes","Office Location","Organizational ID Number","Other Address PO Box","Priority","Private","Profession","Referred By","Sensitivity","Spouse","User 1","User 2","User 3","User 4","Web Page","Samples Given","Interest Level","Additional Info","Newsletter","Best Times to Call","Referred by","Arbonne Before","Products Used","Nutrition Brands","Skincare Brands","Budget for All","Add to Grocery","Magic Wand","Value or Price","Service Preference","Comments","FIT Supplements","FIT Energy","FIT Concerns","FIT Water","FIT Exercise","FIT Eating Patterns","FIT Breakfast in 30","FIT Why","FIT Help","SKIN Conditions","SKIN Products Used","SKIN Budget","SKIN Other Improvements","OPP Interest Level 2","OPP Hours per week","OPP Arbonne Schedule","OPP Challenges","OPP Goal 1st Year","OPP Goal 1 to 2 Years","OPP Goal 2 to 3 Years","OPP Goal 3 to 4 Years","OPP Goal 5 Plus Years","OPP Starting Budget","OPP Operating Budget","OPP Why","OPP Work Experience","Follow Up","Strategy Session","Registration Code","Presentation ID","Presentation Expiration","Presentation Link","Share Link","Shop Link","OPP Mktg Home Parties","OPP Mktg One on One with full set","OPP Mktg One on One with sample","OPP Mktg Virtual Party","OPP Mktg Social Media","OPP Mktg Samples","OPP Skills Facebook","OPP Skills Online tools","OPP Skills Technology","OPP Skills Meeting new people","OPP Skills Talking to people you know","OPP Skills Talking to people you don't know","OPP Skills Invite to virtual party","OPP Skills Virtual Host Ask","OPP Skills Conversation don't know","OPP Skills Speak to Groups","OPP Skills One to One Conversations","OPP Skills Phone","OPP Skills Webinar","OPP Skills Sample Ask","OPP Skills Ask for Sale","OPP Holding Back","Permission State","Created Date","Groups"
"","Tammi","","Albrecht","","","","","","","","","","","","","N3760 Park Lane","","","Kewaunee","WI","54216","USA","","","","","","","","","","","","","","","","920-621-1449","","","","","","","920-621-1449","","","","","","","","01/08/87","","","","","tjalbrecht87@gmail.com","","","","","","","","","","","","","","","","","","","","","","","","","","","","","","","","","","","","Client","Skincare, Cosmetic Tips","Yes","Weekdays","Amy Clarke","Yes","Soap/Shampoo/Lotion, Facial Cleansers/Moisturizers, Cosmetics, Sunscreen","None","Aveda, Clinique","Less than $100","2-4 times per week","","Value","Independent","","","","","","","","","","","Oily, Breakouts, Crows Feet, Dark Circles under the eyes, Large Pores","","","","","","","","","","","","","","","","","","","","","","","","","","","","","","","","","","","","","","","","","","","","","","","Subscribed","Oct 7, 2012","Guest Calls & Tasks;New Clients since 9/2012;Newsletter"
"","Kelly","","Berg","","","","","","","","","","","","","","","","","Unprocessed -- Unprocessed","","","","","","","","","","","","","","","","","","(608) 274-7278","(608) 274-7278","","608-212-9012","","(608) 274-7278","","(608) 274-7278","","","","","","","","","","","","","kellygberg@charter.net","","","","","","","","","","","","","","","","","","","","","","","","","","","","","","","","","","","","","","","","","","","","","","","","","","","","","","","","","","","","","","","","","","","","","","","","","","","","","","","","","","","","","","","","","","","","","","","","","","","","","","","","","","","Unprocessed","Sep 6, 2012","Current Clients"
"","Kristina","","Brereton","","","","","","","","","","","","","n2467 smokey hollow rd.","","","lodi","WI","53555","USA","","","","","","","","","","","","","","","","608-692-4844","","","","","","","608-692-4844","","","","","","","","05/04/86","","","","","Night_Auracle@yahoo.com","","","","","","","","","","","","","","","","","","","","","","","","","","","","","","","","","","","","
Client","
30 Days, 12 Week, Skincare, Cosmetic Tips","
Yes","
Weekday Evenings, Weekend Days","
women's expo","
No","
Protein Shakes/Instant Breakfast, Snack/Granola/Nutrition Bars, Soda, Weight Loss Products, Soap/Shampoo/Lotion, Facial Cleansers/Moisturizers, Cosmetics","
Shakeology, green coffee bean extract, enzymatic therapy EstroBalance with DIM, CTS360 motivate","
dermae very clear problem skin cleanser, Aveda exfoliate and sensitive skin moisturizer.  Finacea gel 15%(azelaic acid)","
$250-$350","
0-1 times per week","
I would be much thinner and have that porcelain perfect smooth skin","
Value","
Independent","","","","","","","","","","","
Combination, Breakouts, Blackheads, Acne Prone, Rosacea, Large Pores, Uneven skin tone, Scarring","","","","","","","","","","","","","","","","","","","","","","","","","","","","","","","","","","","","","","","","","","","","","","","Subscribed","Nov 19, 2012","30 Days to Feeling Fit;Hosts;New Clients since 9/2012;Newsletter"
"","JoAnn ","","Brink","","","","","","","","","","","","","","","","","","","","","","","","","","","","","","","","","","","608-575-1932","","","","","","","608-575-1932","","","","","","","","","","","","","Joann.brink39@gmail.com","","","","","","","","","","","","","","","","","","","","","","","","","","","","","","","","","","","","
Client","","","","","","","","","","","","","","","
Multi-Vitamins","
Coffee, Soda","
Fatigue or Low Energy Levels, Sleepy, bloating or gassy after meals, Brain fog, lack of concentration and/or poor memory, Dissatisfied with your weight, Digestive Irregularity, Joint pain/stiffness, Sugar Cravings, Weak hair & nails","
6","
Yes","
Oatmeal, eggs, turkey bacon, fruits and verges, chicken","
Yes","
I am pre diabetic heart disease runs in my family and I have an 8 year old daughter to live for.","
Yes","","","","","","","","","","","","","","","","","","","","","","","","","","","","","","","","","","","","","","","","","","","","","","","","Unprocessed","Mar 28, 2013","12-Week Nutrition Education;New Clients since 9/2012;Newsletter"
"","Matthew","","Collins","","","Wicked Beauty","","","","","","","","","","4801 Sheboygan Ave
#804","","","Madison","WI -- Unprocessed","53705","","","","","","","","","","","","","","","","","608-698-4247","","","608-698-4247","","","","608-698-4247","","","","","","","","08/24/76","","","","","1wickedbeauty@gmail.com","","","","","","","","","","","","","","","","","","","","","","","","","","","","","","","","","","","","","","","","","","","","","","","","","","","","","","","","","","","","","","","","","","","","","","","","","","","","","","","","","","","","","","","","","","","","","","","","","","","","","","","","","","","Unprocessed","Sep 6, 2012","Current Clients"
"","Kristi","","Cullor","","","","","","","","","","","","","","","","","Unprocessed -- Unprocessed","","","","","","","","","","","","","","","","","","630-202-0252","630-202-0252","","","","630-202-0252","","630-202-0252","","","","","","","","","","","","","rncullor@yahoo.com","","","","","","","","","","","","","","","","","","","","","","","","","","","","","","","","","","","","","","","","","","","","","","","","","","","","","","","","","","","","","","","","","","","","","","","","","","","","","","","","","","","","","","","","","","","","","","","","","","","","","","","","","","","Unprocessed","Sep 6, 2012","Current Clients"
"","Cheryl","","Donkle","","","","","","","","","","","","","5605 Westbury Pl.","","","Madison","WI -- Unprocessed -- Unprocessed","53711","United States of America","","","","","","","","","","","","","","","","(608) 274-0617","(608) 274-0617","","608-516-4935","","(608) 274-0617","","(608) 274-0617","","","","","","","","","","","","","cdonkle@tds.net","","","","","","","","","","","","","","","","","","","","","","","","","","","","","","","","","","","","","","","","","","","","","","","","","","","","","","","","","","","","","","","","","","","","","","","","","","","","","","","","","","","","","","","","","","","","","","","","","","","","","","","","","","","Unprocessed","Sep 6, 2012","Current Clients"
"","Deana","","Dopp","","","","","","","","","","","","","","","","","Unprocessed -- Unprocessed","","","","","","","","","","","","","","","","","","n","608-832-5134","","608-224-9566","","","","n","","","","","","","","","","","","","dmdopp@hotmail.com","","","","","","","","","","","","","","","","","","","","","","","","","","","","","","","","","","","","
Virtual Host","","","","","","","","","","","","","","","
None of the Above","
Coffee, Energy Drinks","
Fatigue or Low Energy Levels, Depression or mood swings, Dissatisfied with your weight, Digestive Irregularity, Joint pain/stiffness, Sugar Cravings","
eight","
No","
breakfast, lunch, small snack, dinner","
No","
Improving my energy, and improving my eating habits to lose weight, and clean eating.","
Yes","","","","","","","","","","","","","","","","","","","","","","","","","","","","","","","","","","","","","","","","","","","","","","","","Unprocessed","Sep 6, 2012","30 Days to Feeling Fit;Current Clients"
"","Margot","","Fischer","","","","","","","","","","","","","502 Virginia Terrace","","","Madison","WI","53726","","","","","","","","","","","","","","","","","238-2754","","","608-217-3112","","","","608-217-3112","","","","","","","","","","","","","mif2@charter.net","","","","","","","","","","","","","","","","","","","","Reacted to RE9 Eye cream, not using Arbonne eye currently","","","","","","","","","","","","","","","","","","","","","","","","","","","","","","","","","","","","","","","","","","","","","","","","","","","","","","","","","","","","","","","","","","","","","","","","","","","","","","","","","","","","","","","Unprocessed","Sep 6, 2012","Current Clients"
"","Pam","","Fuerstenberg","","","","","","","","","","","","","","","","","Unprocessed -- Unprocessed","","","","","","","","","","","","","","","","","","(608) 850-9313","(608) 850-9313","","(608) 225-7893","","(608) 850-9313","","(608) 850-9313","","","","","","","","","","","","","pafuerstenberg@yahoo.com","","","","","","","","","","","","","","","","","","","","","","","","","","","","","","","","","","","","","","","","","","","","","","","","","","","","","","","","","","","","","","","","","","","","","","","","","","","","","","","","","","","","","","","","","","","","","","","","","","","","","","","","","","","Unprocessed","Sep 6, 2012","Current Clients"
"","Kimberly","","Goffard","","","","","","","","","","","","","3985 North Corey Lane","","","Appleton","WI","54913","USA","","","","","","","","","","","","","","","","920-915-2788","","","","","","","920-915-2788","","","","","","","","02/18/73","","","","","kgoffard1@new.rr.com","","","","","","","","","","","","","","","","","","","","","","","","","","","","","","","","","","","","Client","None","Yes","Weekend Days","Amy","Yes","Protein Shakes/Instant Breakfast, Snack/Granola/Nutrition Bars, Soda, Weight Loss Products, Multi-Vitamin, Soap/Shampoo/Lotion, Facial Cleansers/Moisturizers, Facial Scrubs/Masks, Acne Treatments, Cosmetics, Sunscreen","GNC","proactive","Less than $100","2-4 times per week","lose weight and have no acne","Price","Independent","","","","","","","","","","","Combination, Blackheads, Acne Prone, Sensitive Skin, Fine Lines, Dark Circles under the eyes, Scarring","","","","","","","","","","","","","","","","","","","","","","","","","","","","","","","","","","","","","","","","","","","","","","","Pending","Jan 8, 2013","Guest Calls & Tasks"
"","Sara","","Hawk","","","","","","","","","","","","","N455 Cty Hwy C","","","De Forest","WI -- Subscribed","53532","US","","","","","","","","","","","","","","","","6088462572","6088462572","","","","","","6088462572","","","","","","","","03/30/69","","","","","sshawkss@msn.com","","","","","","","","","","","","","","","","","","","","","","","","","","","","","","","","","","","","","","","Weekdays","Amy Clarke","Yes","Snack/Granola/Nutrition Bars, Soda, Multi-Vitamin, Soap/Shampoo/Lotion, Facial Cleansers/Moisturizers, Anti-Aging for Women, Acne Treatments, Cosmetics, Sunscreen","none","Arbonne","$250-$350","0-1 times per week","Exercise more, be outdoors more","Value","Independent","","","","","","","","","","","Combination, Breakouts, Sensitive Skin, Fine Lines, Dark Circles under the eyes","","","","","","","","","","","","","","","","","","","","","","","","","","","","","","","","","","","","","","","","","","","","","","","Subscribed","Sep 6, 2012","Current Clients;Newsletter"
"","Lynn","","Jacobs","","","","","","","","","","","","","3021 Manchester Rd
","","","Madison","WI","53719","US","","","","","","","","","","","","","","","","608-274-4938","","","","","","","608-274-4938","","","","","","","","","","","","","lspreeman@yahoo.com","","","","","","","","","","","","","","","","","","","","","","","","","","","","","","","","","","","","","","","","","","","","","","","","","","","","","","","","","","","","","","","","","","","","","","","","","","","","","","","","","","","","","","","","","","","","","","","","","","","","","","","","","","","Unprocessed","Sep 13, 2012","Current Clients"
"","Diane","","Krieger","","","","","","","","","","","","","1308 Park St","","","Cross Plains","Wi","53528","USA","","","","","","","","","","","","","","","","6087980130","","","","","","","6087980130","","","","","","","","08/05/72","","","","","dianekrieger@charter.net","","","","","","","","","","","","","","","","","","","","","","","","","","","","","","","","","","","","Client","30 Days","Yes","Weekdays","Amy Clarke","No","Multi-Vitamin, Soap/Shampoo/Lotion, Facial Cleansers/Moisturizers, Cosmetics, Sunscreen","None","Nutragena","Less than $100","0-1 times per week","","Price","Independent","","","","","","","","","","","Sensitive Skin, Fine Lines, Rosacea","","","","","","","","","","","","","","","","","","","","","","","","","","","","","","","","","","","","","","","","","","","","","","","Pending","Jan 9, 2013","Guest Calls & Tasks"
"","Laurel","","Losenegger","","","","","","","","","","","","","1713 Violet Pl","","","Middleton","WI -- Unprocessed -- Unprocessed","53562-3264","UnitedStates of America","","","","","","","","","","","","","","","","(608) 836-3834","(608) 836-3834","","(608) 206-3835","","(608) 836-3834","","(608) 836-3834","","","","","","","","","","","","","llosenegger@tds.net","","","","","","","","","","","","","","","","","","","","","","","","","","","","","","","","","","","","","","","","","","","","","","","","","","","","","","","","","","","","","","","","","","","","","","","","","","","","","","","","","","","","","","","","","","","","","","","","","","","","","","","","","","","Unprocessed","Sep 6, 2012","Current Clients"
"","Cindy","","McLean","","","","","","","","","","","","","Po box 91625","","","Raleigh ","NC","27675","USA","","","","","","","","","","","","","","","","817-247-9267","","","","","","","817-247-9267","","","","","","","","12/01/72","","","","","cjmclean@sbcglobal.net","","","","","","","","","","","","","","","","","","","","Their comment:
----------
I don't like feeling pressured & I don't like to get my friends/ acquaintances to buy things so I can make money. 
----------","","","","","","","","","","","","","","","","Client","None","Yes","Weekday Evenings","Amy ","Yes","Snack/Granola/Nutrition Bars, Multi-Vitamin, Probiotics, Other Vitamin Supplements, Soap/Shampoo/Lotion, Facial Cleansers/Moisturizers, Cosmetics, Sunscreen, Baby Wash/Lotion, etc","Acai","Origins ","$250-$350","5 or more times per week","Lose weight, eat better","Value","Independent","","","","","","","","","","","Combination, Breakouts, Sensitive Skin, Fine Lines, Dark Circles under the eyes, Large Pores, Sagging Neck, Uneven skin tone","","","","","","","","","","","","","","","","","","","","","","","","","","","","","","","","","","","","","","","","","","","","","","","Pending","Jan 9, 2013","Guest Calls & Tasks"
"","Katie","","Moder","","","","","","","","","","","","","960 Buttermilk Creek Drive","","","Fond du Lac","WI -- Subscribed","54935","United States","","","","","","","","","","","","","","","","920-979-0007","","","","","","","920-979-0007","","","","","","","","05/07/73","","","","","moderk@fonddulac.k12.wi.us","","","ckmoder@charter.net","","Katie Moder: Home","","","","","","","","","","","","","","","13162250","","","","","","","","","","","","","","","","","","","Weekend Days","Amy Clarke","Yes","Snack/Granola/Nutrition Bars, Energy/Sports Drinks, Soda, Multi-Vitamin, Soap/Shampoo/Lotion, Facial Cleansers/Moisturizers, Spa Treatments, Anti-Aging for Women, Anti-Aging for Men, Cosmetics, Sunscreen","Weight Watchers","Arbonne","$375-$475","2-4 times per week","Fast healthy food","Value","Independent","","","","","","","","","","","Normal, Blackheads, Age/Sun Spots, Crows Feet, Dark Circles under the eyes","","","","","","","","","","","","","","","","","","","","","","","","","","","","","","","","","","","","","","","","","","","","","","","Subscribed","Sep 6, 2012","New Clients since 9/2012;Newsletter"
"","Kim","","Moran","","","","","","621 South 6th","","","Evansville","WI","53536","United States of America","","","","","Unprocessed -- Unprocessed","","","","","","","","","","","","","","","","","","1 (608) 516-9969","","","","","","","1 (608) 516-9969","","","","","","","","","","","","","kmoranRN@gmail.com","","","kmoranRN@gmail.com","","Kim Moran: Other","","","","","","","","","","","","","","","ID 17731280
Pin 1358","","","","","","","","","","","","","","","","","","","","","","","","","","","","","","","","","","","","","","","","","","","","","","","","","","","","","","","","","","","","","","","","","","","","","","","","","","","","","","","","","","","","","","","Unprocessed","Sep 6, 2012","Current Clients"
"","Juliann","","Mutch","","","","","","","","","","","","","2101 Manor Green Dr","","","Madison","WI","53711","","","","","","","","","","","","","","","","","608-513-1094","","","","","","","608-513-1094","","","","","","","","","","","","","mutchfamily@hotmail.com","","","","","","","","","","","","","","","","","","","","","","","","","","","","","","","","","","","","","","","","","","","","","","","","","","","","","","","","","","","","","","","","","","","","","","","","","","","","","","","","","","","","","","","","","","","","","","","","","","","","","","","","","","","Unprocessed","Sep 13, 2012","Current Clients"
"","Maria","","Panagopoulos","","","","","","","","","","","","","2948 Winter Park Pl","","","Madison","WI -- Unprocessed -- Unprocessed","53719","United States of America","","","","","","","","","","","","","","","","608-848-2410","608-848-2410","","(414) 617-4785","","608-848-2410","","608-848-2410","","","","","","","","","","","","","mpanagopoulos@charter.net","","","mpanagopoulos@charter.net","","Maria Panagopoulos: Other","","","","","","","","","","","","","","","","","","","","","","","","","","","","","","","","","","","","","","","","","","","","","","","","","","","","","","","","","","","","","","","","","","","","","","","","","","","","","","","","","","","","","","","","","","","","","","","","","","","","","","Unprocessed","Sep 6, 2012","New Clients since 9/2012"
"","Allison ","","Plummer","","","","","","","","","","","","","2558 E. Johnson St.","","","Madison","WI","53704","US","","","","","","","","","","","","","","","","608-225-4979","","","","","","","608-225-4979","","","","","","","","03/30/76","","","","","ajplummer@uwalumni.com","","","","","","","","","","","","","","","","","","","","","","","","","","","","","","","","","","","","Client","12 Week","Yes","Weekday Evenings","Amy Clarke","Yes","Snack/Granola/Nutrition Bars, Energy/Sports Drinks, Other Vitamin Supplements, Soap/Shampoo/Lotion, Facial Cleansers/Moisturizers, Cosmetics, Sunscreen","None, but I've tried Muscle Milk before! ","Body Shop or Aveeno","Less than $100","0-1 times per week","Sleep better, have more energy","Price","Independent","","","","","","","","","","","Dry, Oily, Combination, Sensitive Skin, Age/Sun Spots, Rosacea","","","","","","","","","","","","","","","","","","","","","","","","","","","","","","","","","","","","","","","","","","","","","","","Subscribed","Jan 11, 2013","Guest Calls & Tasks;Newsletter"
"","Jennifer","","Rizzo","","","","","","","","","","","","","3737 Mammoth Tr","","","Madison","Wi -- Unprocessed -- Unprocessed","53719","United States","","","","","","","","","","","","","","","","9209019325","9209019325","","9209019325","","9209019325","","9209019325","","","","","","","","","","","","","jenniferrizzo@gmail.com","","","","","","","","","","","","","","","","","","","","Line Defiance foundation
FC5 n/d cleanser and day lotion","","","","","","","","","","","","","","","","","","","","","","","","","","","","","","","","","","","","","","","","","","","","","","","","","","","","","","","","","","","","","","","","","","","","","","","","","","","","","","","","","","","","","","","Unprocessed","Sep 6, 2012","Current Clients"
"","Pat","","Rohrer","","","","","","","","","","","","","5739 Monticello Way","","","Madison","WI","53719","USA","","","","","","","","","","","","","","","","(608) 274-7651","","","","","","","(608) 274-7651","","","","","","","","11/01/57","","","","","parohrer@charter.net","","","","","","","","","","","","","","","","","","","","Renewal in August","","","","","","","","","","","","","","","","Client","None","Yes","Weekdays","Amy Clarke","Yes","Protein Shakes/Instant Breakfast, Soda, Multi-Vitamin, Other Vitamin Supplements, Sunscreen","herbalife","Arbonne","$125-$225","0-1 times per week","I wish I enjoyed exercising more","Value","Independent","","","","","","","","","","","Rosacea, Uneven skin tone","","","","","","","","","","","","","","","","","","","","","","","","","","","","","","","","","","","","","","","","","","","","","","","Subscribed","Sep 13, 2012","Current Clients;Newsletter"
"","Tina","","Schubert","","","","","","","","","","","","","","","","","Unprocessed -- Unprocessed","","","","","","","","","","","","","","","","","","(608) 848-1711","","","","","","","(608) 848-1711","","","","","","","","","","","","","chestinaprince@yahoo.com","","","","","","","","","","","","","","","","","","","","","","","","","","","","","","","","","","","","","","","","","","","","","","","","","","","","","","","","","","","","","","","","","","","","","","","","","","","","","","","","","","","","","","","","","","","","","","","","","","","","","","","","","","","Unprocessed","Sep 6, 2012","Current Clients"
"","Lisa","","Smith","","","","","","","","","","","","","58 S Midvale Blvd","","","Madison","WI","53705","","","","","","","","","","","","","","","","","608-213-5057","","","","","","","608-213-5057","","","","","","","","","","","","","twigg_woman@tds.net","","","","","","","","","","","","","","","","","","","","","","","","","","","","","","","","","","","","","","","","","","","","","","","","","","","","","","","","","","","","","","","","","","","","","","","","","","","","","","","","","","","","","","","","","","","","","","","","","","","","","","","","","","","Unprocessed","Sep 13, 2012","Current Clients"
"","Julie","","Svendsen","","","","","","","","","","","","","7706 Westman Way Rd.","","","Middleton","WI","53562","USA","","","","","","","","","","","","","","","","(608) 833-2677","(608) 217-0608","","","","","","(608) 833-2677","","","","","","","","04/10/73","","","","","julie_svendsen@charter.net","","","","","","","","","","","","","","","","","","","","","","","","","","","","","","","","","","","","Client","Cosmetic Tips","Yes","Weekdays","Amy Clarke","Yes","Snack/Granola/Nutrition Bars, Probiotics, Soap/Shampoo/Lotion, Facial Cleansers/Moisturizers, Acne Treatments, Cosmetics, Sunscreen, Baby Wash/Lotion, etc","None","Arbonne, Clinique, Olay, Eucerin, Basis","$125-$225","0-1 times per week","Just look less tired","Price","Personal","","","","","","","","","","","Combination, Blackheads, Acne Prone, Sensitive Skin, Fine Lines, Age/Sun Spots, Dark Circles under the eyes, Large Pores, Uneven skin tone","","","","","","","","","","","","","","","","","","","","","","","","","","","","","","","","","","","","","","","","","","","","","","","Subscribed","Sep 6, 2012","New Clients since 9/2012;Newsletter"
"","Jennifer","","Trahan","","","","","","","","","","","","","1418 Wandering Way","","","Castle Rock","CO -- Unprocessed -- Unprocessed","80109-3693","United States of America","","","","","","","","","","","","","","","","720-670-0581","","","1-720-670-0581","","","","720-670-0581","","","","","","","","10/04/71","","","","","jtrn71@comcast.net","","","","","","","","","","","","","","","","","","","","RE9","","","","","","","","","","","","","","","","
Virtual Host","
30 Days","
No","
Weekday Evenings","
Amy Clarke","
Yes","
Snack/Granola/Nutrition Bars, Probiotics, Soap/Shampoo/Lotion, Facial Cleansers/Moisturizers, Facial Scrubs/Masks, Anti-Aging for Women, Cosmetics, Baby Wash/Lotion, etc","
none","
Arbonne RE9","
$250-$350","
2-4 times per week","","
Value","
Independent","","","","","","","","","","","
Combination, Fine Lines, Dark Circles under the eyes","","","","","","","","","","","","","","","","","","","","","","","","","","","","","","","","","","","","","","","","","","","","","","","Subscribed","Sep 6, 2012","30 Days to Feeling Fit;Current Clients;Guest Calls & Tasks;Hosts"
"","Therese","","Unterholzner","","","","","","","","","","","","","1972 Barber Drive #2","","","Stoughton","WI","53589","","","","","","","","","","","","","","","","","608-438-6769","","","","","","","608-438-6769","","","","","","","","","","","","","misstherese69@hotmail.com","","","","","","","","","","","","","","","","","","","","","","","","","","","","","","","","","","","","","","","","","","","","","","","","","","","","","","","","","","","","","","","","","","","","","","","","","","","","","","","","","","","","","","","","","","","","","","","","","","","","","","","","","","","Unprocessed","Sep 13, 2012","Current Clients"
"","Heide","","Weiss","","","","","","","","","","","","","4316 Sentinel Pass","","","Madison","WI","53711","USA","","","","","","","","","","","","","","","","608-288-0362","608-288-0362","","","","608-288-0362","","608-288-0362","","","","","","","","03/19/70","","","","","weiss.heide@yahoo.com","","","","","","","","","","","","","","","","","","","","
Home address: ,,Unprocessed -- Unprocessed,,","","","","","","","","","","","","","","","","Virtual Host","30 Days","Yes","Weekday Evenings","Amy C.","Yes","Soda, Multi-Vitamin, Other Vitamin Supplements, Facial Cleansers/Moisturizers, Cosmetics","none","Arbonne and some Clinique","$125-$225","0-1 times per week","","Price","Independent","","","","","","","","","","","Combination, Age/Sun Spots, Dark Circles under the eyes","","","","","","","","","","","","","","","","","","","","","","","","","","","","","","","","","","","","","","","","","","","","","","","Pending","Sep 6, 2012","Current Clients"
